signal.length,sample,phase,ns
650,1,1,279762000
650,1,2,570952000
650,1,3,855711000
650,1,4,1159319000
650,1,5,1443924000
650,1,6,1713749000
650,1,7,1993264000
650,1,8,2315872000
1300,1,1,1191421000
1300,1,2,2408741000
1300,1,3,3746535000
1300,1,4,4994193000
1300,1,5,5942928000
1300,1,6,7046438000
1300,1,7,8212744000
1300,1,8,9718003000
1950,1,1,2683090000
1950,1,2,5528739000
1950,1,3,8300304000
1950,1,4,10894106000
1950,1,5,14065305000
1950,1,6,16506991000
1950,1,7,18991448000
1950,1,8,21549665000
2600,1,1,4994689000
2600,1,2,9863658000
2600,1,3,14659163000
2600,1,4,19441553000
2600,1,5,24533428000
2600,1,6,29153374000
2600,1,7,34058140000
2600,1,8,38936106000
3250,1,1,7951126000
3250,1,2,15488231000
3250,1,3,22859098000
3250,1,4,30546691000
3250,1,5,39094607000
3250,1,6,45753711000
3250,1,7,53304285000
3250,1,8,60927996000
3900,1,1,11391065000
3900,1,2,21922175000
3900,1,3,34170129000
3900,1,4,44418826000
3900,1,5,55113332000
3900,1,6,66121776000
3900,1,7,77664714000
3900,1,8,88291325000
4550,1,1,15056179000
4550,1,2,30240234000
4550,1,3,45412914000
4550,1,4,61896234000
4550,1,5,75541302000
4550,1,6,90356420000
4550,1,7,105593933000
4550,1,8,120691394000
5200,1,1,19657294000
5200,1,2,40225561000
5200,1,3,58963428000
5200,1,4,79246356000
5200,1,5,100134371000
5200,1,6,120211312000
5200,1,7,138956405000
5200,1,8,159847963000
