signal.length,sample,phase,start,ns
650,1,1,0,13043000
650,1,2,0,26043000
650,1,3,0,39685000
650,1,4,0,53650000
650,1,5,0,65223000
650,1,6,0,77028000
650,1,7,0,90533000
650,1,8,0,103300000
1300,1,1,0,35428000
1300,1,2,0,72922000
1300,1,3,0,105086000
1300,1,4,0,139623000
1300,1,5,0,177769000
1300,1,6,0,209070000
1300,1,7,0,243160000
1300,1,8,0,279694000
1950,1,1,0,66940000
1950,1,2,0,132590000
1950,1,3,0,198959000
1950,1,4,0,264004000
1950,1,5,0,328919000
1950,1,6,0,393796000
1950,1,7,0,458482000
1950,1,8,0,522823000
2600,1,1,0,105876000
2600,1,2,0,212891000
2600,1,3,0,318936000
2600,1,4,0,423314000
2600,1,5,0,527267000
2600,1,6,0,633416000
2600,1,7,0,737076000
2600,1,8,0,843551000
3250,1,1,0,156281000
3250,1,2,0,308552000
3250,1,3,0,463142000
3250,1,4,0,620885000
3250,1,5,0,772065000
3250,1,6,0,924942000
3250,1,7,0,1078574000
3250,1,8,0,1233743000
3900,1,1,0,212382000
3900,1,2,0,425855000
3900,1,3,0,633259000
3900,1,4,0,847168000
3900,1,5,0,1062375000
3900,1,6,0,1272323000
3900,1,7,0,1488052000
3900,1,8,0,1691653000
4550,1,1,0,287465000
4550,1,2,0,571189000
4550,1,3,0,856367000
4550,1,4,0,1139569000
4550,1,5,0,1423502000
4550,1,6,0,1735178000
4550,1,7,0,1996901000
4550,1,8,0,2274436000
5200,1,1,0,364726000
5200,1,2,0,726385000
5200,1,3,0,1085525000
5200,1,4,0,1444600000
5200,1,5,0,1810748000
5200,1,6,0,2166709000
5200,1,7,0,2541817000
5200,1,8,0,2891948000
650,1,1,80,9149000
650,1,2,80,18615000
650,1,3,80,29770000
650,1,4,80,37850000
650,1,5,80,48246000
650,1,6,80,58172000
650,1,7,80,67462000
650,1,8,80,75776000
1300,1,1,80,29116000
1300,1,2,80,60845000
1300,1,3,80,91083000
1300,1,4,80,119431000
1300,1,5,80,149032000
1300,1,6,80,177507000
1300,1,7,80,208841000
1300,1,8,80,234339000
1950,1,1,80,59470000
1950,1,2,80,121332000
1950,1,3,80,180522000
1950,1,4,80,236285000
1950,1,5,80,294757000
1950,1,6,80,356125000
1950,1,7,80,412161000
1950,1,8,80,470419000
2600,1,1,80,98266000
2600,1,2,80,195130000
2600,1,3,80,293944000
2600,1,4,80,389099000
2600,1,5,80,487449000
2600,1,6,80,582307000
2600,1,7,80,680037000
2600,1,8,80,785696000
3250,1,1,80,145404000
3250,1,2,80,289006000
3250,1,3,80,435248000
3250,1,4,80,577607000
3250,1,5,80,723123000
3250,1,6,80,867550000
3250,1,7,80,1009595000
3250,1,8,80,1153801000
3900,1,1,80,203158000
3900,1,2,80,421874000
3900,1,3,80,601474000
3900,1,4,80,806586000
3900,1,5,80,1000992000
3900,1,6,80,1202929000
3900,1,7,80,1401531000
3900,1,8,80,1593470000
4550,1,1,80,274684000
4550,1,2,80,545237000
4550,1,3,80,818263000
4550,1,4,80,1088530000
4550,1,5,80,1360113000
4550,1,6,80,1637463000
4550,1,7,80,1904272000
4550,1,8,80,2175276000
5200,1,1,80,349217000
5200,1,2,80,691105000
5200,1,3,80,1038771000
5200,1,4,80,1389912000
5200,1,5,80,1738861000
5200,1,6,80,2071084000
5200,1,7,80,2480189000
5200,1,8,80,2769709000
650,1,1,160,6528000
650,1,2,160,11742000
650,1,3,160,19422000
650,1,4,160,25168000
650,1,5,160,32563000
650,1,6,160,36493000
650,1,7,160,44225000
650,1,8,160,51807000
1300,1,1,160,24981000
1300,1,2,160,50521000
1300,1,3,160,75997000
1300,1,4,160,99299000
1300,1,5,160,123348000
1300,1,6,160,148280000
1300,1,7,160,175267000
1300,1,8,160,198593000
1950,1,1,160,54946000
1950,1,2,160,105920000
1950,1,3,160,157470000
1950,1,4,160,210106000
1950,1,5,160,267655000
1950,1,6,160,315284000
1950,1,7,160,365909000
1950,1,8,160,415865000
2600,1,1,160,90871000
2600,1,2,160,179359000
2600,1,3,160,269299000
2600,1,4,160,358202000
2600,1,5,160,444441000
2600,1,6,160,536947000
2600,1,7,160,620641000
2600,1,8,160,714755000
3250,1,1,160,135913000
3250,1,2,160,271817000
3250,1,3,160,405242000
3250,1,4,160,539159000
3250,1,5,160,676261000
3250,1,6,160,806336000
3250,1,7,160,942114000
3250,1,8,160,1075337000
3900,1,1,160,190800000
3900,1,2,160,378450000
3900,1,3,160,600978000
3900,1,4,160,764543000
3900,1,5,160,943586000
3900,1,6,160,1131979000
3900,1,7,160,1372819000
3900,1,8,160,1775713000
4550,1,1,160,296524000
4550,1,2,160,555037000
4550,1,3,160,806706000
4550,1,4,160,1071130000
4550,1,5,160,1332464000
4550,1,6,160,1603116000
4550,1,7,160,1896426000
4550,1,8,160,2094169000
5200,1,1,160,359855000
5200,1,2,160,740359000
5200,1,3,160,1060901000
5200,1,4,160,1424505000
5200,1,5,160,1707180000
5200,1,6,160,2083238000
5200,1,7,160,2361231000
5200,1,8,160,2653050000
650,1,1,240,3840000
650,1,2,240,6959000
650,1,3,240,11513000
650,1,4,240,13968000
650,1,5,240,17319000
650,1,6,240,20981000
650,1,7,240,24142000
650,1,8,240,27649000
1300,1,1,240,19455000
1300,1,2,240,39303000
1300,1,3,240,59202000
1300,1,4,240,79659000
1300,1,5,240,97839000
1300,1,6,240,117150000
1300,1,7,240,137378000
1300,1,8,240,155746000
1950,1,1,240,45908000
1950,1,2,240,91187000
1950,1,3,240,135890000
1950,1,4,240,181775000
1950,1,5,240,226946000
1950,1,6,240,273479000
1950,1,7,240,319579000
1950,1,8,240,370471000
2600,1,1,240,81259000
2600,1,2,240,161190000
2600,1,3,240,241436000
2600,1,4,240,321568000
2600,1,5,240,400534000
2600,1,6,240,481702000
2600,1,7,240,566040000
2600,1,8,240,647598000
3250,1,1,240,126698000
3250,1,2,240,248119000
3250,1,3,240,373198000
3250,1,4,240,499629000
3250,1,5,240,628041000
3250,1,6,240,752228000
3250,1,7,240,882011000
3250,1,8,240,1005891000
3900,1,1,240,177551000
3900,1,2,240,359596000
3900,1,3,240,607564000
3900,1,4,240,749012000
3900,1,5,240,991471000
3900,1,6,240,1121429000
3900,1,7,240,1386930000
3900,1,8,240,1434184000
4550,1,1,240,249154000
4550,1,2,240,493088000
4550,1,3,240,736344000
4550,1,4,240,987360000
4550,1,5,240,1269517000
4550,1,6,240,1631535000
4550,1,7,240,1804064000
4550,1,8,240,2054204000
5200,1,1,240,332254000
5200,1,2,240,661993000
5200,1,3,240,1038165000
5200,1,4,240,1357654000
5200,1,5,240,1590151000
5200,1,6,240,1951262000
5200,1,7,240,2366527000
5200,1,8,240,2620294000
650,1,1,320,2817000
650,1,2,320,5999000
650,1,3,320,8769000
650,1,4,320,11672000
650,1,5,320,15292000
650,1,6,320,17660000
650,1,7,320,20502000
650,1,8,320,23369000
1300,1,1,320,16521000
1300,1,2,320,32361000
1300,1,3,320,47529000
1300,1,4,320,64401000
1300,1,5,320,77265000
1300,1,6,320,93364000
1300,1,7,320,109346000
1300,1,8,320,122114000
1950,1,1,320,41177000
1950,1,2,320,84489000
1950,1,3,320,122569000
1950,1,4,320,163495000
1950,1,5,320,206127000
1950,1,6,320,244199000
1950,1,7,320,285776000
1950,1,8,320,324462000
2600,1,1,320,77088000
2600,1,2,320,152591000
2600,1,3,320,226647000
2600,1,4,320,302518000
2600,1,5,320,376423000
2600,1,6,320,451004000
2600,1,7,320,527214000
2600,1,8,320,599878000
3250,1,1,320,121435000
3250,1,2,320,239853000
3250,1,3,320,360912000
3250,1,4,320,477767000
3250,1,5,320,604767000
3250,1,6,320,769036000
3250,1,7,320,833058000
3250,1,8,320,948677000
3900,1,1,320,174150000
3900,1,2,320,343469000
3900,1,3,320,517618000
3900,1,4,320,688339000
3900,1,5,320,859593000
3900,1,6,320,1028827000
3900,1,7,320,1205205000
3900,1,8,320,1388822000
4550,1,1,320,241151000
4550,1,2,320,481149000
4550,1,3,320,722150000
4550,1,4,320,958005000
4550,1,5,320,1195589000
4550,1,6,320,1436106000
4550,1,7,320,1675947000
4550,1,8,320,1916043000
5200,1,1,320,319293000
5200,1,2,320,622016000
5200,1,3,320,934305000
5200,1,4,320,1248233000
5200,1,5,320,1615026000
5200,1,6,320,1907468000
5200,1,7,320,2193979000
5200,1,8,320,2490865000
650,1,1,400,4037000
650,1,2,400,5551000
650,1,3,400,6531000
650,1,4,400,9931000
650,1,5,400,11791000
650,1,6,400,12398000
650,1,7,400,15675000
650,1,8,400,18793000
1300,1,1,400,10169000
1300,1,2,400,20549000
1300,1,3,400,30140000
1300,1,4,400,39014000
1300,1,5,400,49787000
1300,1,6,400,58467000
1300,1,7,400,71045000
1300,1,8,400,78901000
1950,1,1,400,32329000
1950,1,2,400,67636000
1950,1,3,400,99172000
1950,1,4,400,129962000
1950,1,5,400,163254000
1950,1,6,400,199215000
1950,1,7,400,227653000
1950,1,8,400,263257000
2600,1,1,400,66290000
2600,1,2,400,139625000
2600,1,3,400,192874000
2600,1,4,400,260822000
2600,1,5,400,327268000
2600,1,6,400,401751000
2600,1,7,400,462410000
2600,1,8,400,525841000
3250,1,1,400,109578000
3250,1,2,400,214564000
3250,1,3,400,323986000
3250,1,4,400,430300000
3250,1,5,400,541579000
3250,1,6,400,646534000
3250,1,7,400,755146000
3250,1,8,400,859645000
3900,1,1,400,161893000
3900,1,2,400,319865000
3900,1,3,400,479001000
3900,1,4,400,627381000
3900,1,5,400,786422000
3900,1,6,400,951485000
3900,1,7,400,1108629000
3900,1,8,400,1250779000
4550,1,1,400,220619000
4550,1,2,400,439756000
4550,1,3,400,657821000
4550,1,4,400,874929000
4550,1,5,400,1095464000
4550,1,6,400,1307960000
4550,1,7,400,1555004000
4550,1,8,400,1748882000
5200,1,1,400,286522000
5200,1,2,400,572581000
5200,1,3,400,863854000
5200,1,4,400,1146195000
5200,1,5,400,1445388000
5200,1,6,400,1755244000
5200,1,7,400,2041593000
5200,1,8,400,2343274000
650,1,1,480,1388000
650,1,2,480,2735000
650,1,3,480,4355000
650,1,4,480,5819000
650,1,5,480,7136000
650,1,6,480,9054000
650,1,7,480,10612000
650,1,8,480,12404000
1300,1,1,480,6867000
1300,1,2,480,15692000
1300,1,3,480,22228000
1300,1,4,480,32239000
1300,1,5,480,35368000
1300,1,6,480,46098000
1300,1,7,480,51749000
1300,1,8,480,60922000
1950,1,1,480,25164000
1950,1,2,480,54584000
1950,1,3,480,82254000
1950,1,4,480,104161000
1950,1,5,480,130375000
1950,1,6,480,156950000
1950,1,7,480,183242000
1950,1,8,480,205333000
2600,1,1,480,56769000
2600,1,2,480,114243000
2600,1,3,480,168743000
2600,1,4,480,225782000
2600,1,5,480,281724000
2600,1,6,480,337220000
2600,1,7,480,390246000
2600,1,8,480,451479000
3250,1,1,480,97439000
3250,1,2,480,192150000
3250,1,3,480,287339000
3250,1,4,480,389229000
3250,1,5,480,484549000
3250,1,6,480,574314000
3250,1,7,480,682929000
3250,1,8,480,783621000
3900,1,1,480,149798000
3900,1,2,480,291833000
3900,1,3,480,444671000
3900,1,4,480,595803000
3900,1,5,480,724076000
3900,1,6,480,878670000
3900,1,7,480,1018578000
3900,1,8,480,1153730000
4550,1,1,480,207863000
4550,1,2,480,412784000
4550,1,3,480,619119000
4550,1,4,480,822628000
4550,1,5,480,1029869000
4550,1,6,480,1226667000
4550,1,7,480,1447307000
4550,1,8,480,1640472000
5200,1,1,480,275099000
5200,1,2,480,545791000
5200,1,3,480,820089000
5200,1,4,480,1088367000
5200,1,5,480,1369556000
5200,1,6,480,1635388000
5200,1,7,480,1918993000
5200,1,8,480,2305390000
650,1,1,560,773000
650,1,2,560,1490000
650,1,3,560,2411000
650,1,4,560,2849000
650,1,5,560,3930000
650,1,6,560,6186000
650,1,7,560,6780000
650,1,8,560,5807000
1300,1,1,560,7931000
1300,1,2,560,16052000
1300,1,3,560,19427000
1300,1,4,560,27640000
1300,1,5,560,33547000
1300,1,6,560,41983000
1300,1,7,560,48274000
1300,1,8,560,58504000
1950,1,1,560,18592000
1950,1,2,560,40275000
1950,1,3,560,64579000
1950,1,4,560,78784000
1950,1,5,560,99951000
1950,1,6,560,118360000
1950,1,7,560,138064000
1950,1,8,560,155717000
2600,1,1,560,50333000
2600,1,2,560,98318000
2600,1,3,560,149263000
2600,1,4,560,194417000
2600,1,5,560,240938000
2600,1,6,560,287038000
2600,1,7,560,333198000
2600,1,8,560,383415000
3250,1,1,560,87148000
3250,1,2,560,174801000
3250,1,3,560,258151000
3250,1,4,560,343152000
3250,1,5,560,428804000
3250,1,6,560,511218000
3250,1,7,560,601781000
3250,1,8,560,684721000
3900,1,1,560,133258000
3900,1,2,560,264777000
3900,1,3,560,399461000
3900,1,4,560,528981000
3900,1,5,560,658488000
3900,1,6,560,839388000
3900,1,7,560,962955000
3900,1,8,560,1052601000
4550,1,1,560,193211000
4550,1,2,560,386356000
4550,1,3,560,575852000
4550,1,4,560,765213000
4550,1,5,560,955264000
4550,1,6,560,1148454000
4550,1,7,560,1340373000
4550,1,8,560,1529064000
5200,1,1,560,257713000
5200,1,2,560,513802000
5200,1,3,560,768609000
5200,1,4,560,1027332000
5200,1,5,560,1276725000
5200,1,6,560,1536957000
5200,1,7,560,1792921000
5200,1,8,560,2047363000
